…
If we want to get information, for instance, from all specimens of elasmobranchs distributed in Peru and stored in BOLD, we can use the following line:

``` r
specimendata <- boldminer::SpecimenData(taxon = "Elasmobranchii", geo = "Peru")
```

Then, we use *tibble* package to only assess its dimension:

``` r
tibble::as_tibble(specimendata)
#> # A tibble: 99 x 68
#>    processid sampleid recordID catalognum fieldnum institution_sto…
#>    <fct>     <fct>       <int> <fct>      <fct>    <fct>           
#>  1 ANGBF109… KJ146022  5651960 ""         KJ146022 Mined from GenB…
#>  2 ANGBF109… KJ146023  5651961 ""         KJ146023 Mined from GenB…
#>  3 ANGBF109… KJ146024  5651962 ""         KJ146024 Mined from GenB…
#>  4 ANGBF110… KJ146021  5652090 ""         KJ146021 Mined from GenB…
#>  5 ANGBF110… KJ146044  5652111 ""         KJ146044 Mined from GenB…
#>  6 ANGBF110… KJ146043  5652112 ""         KJ146043 Mined from GenB…
#>  7 ANGBF116… KJ146045  5652680 ""         KJ146045 Mined from GenB…
#>  8 ANGBF116… KJ146041  5652681 ""         KJ146041 Mined from GenB…
#>  9 ANGBF116… KJ146040  5652682 ""         KJ146040 Mined from GenB…
#> 10 ANGBF116… KJ146038  5652684 ""         KJ146038 Mined from GenB…
#> # … with 89 more rows, and 62 more variables: collection_code <lgl>,
#> #   bin_uri <fct>, phylum_taxID <int>, phylum_name <fct>,
#> #   class_taxID <int>, class_name <fct>, order_taxID <int>,
#> #   order_name <fct>, family_taxID <int>, family_name <fct>,
#> #   subfamily_taxID <lgl>, subfamily_name <lgl>, genus_taxID <int>,
#> #   genus_name <fct>, species_taxID <int>, species_name <fct>,
#> #   subspecies_taxID <lgl>, subspecies_name <lgl>,
#> #   identification_provided_by <fct>, identification_method <fct>,
#> #   identification_reference <fct>, tax_note <lgl>, voucher_status <fct>,
…
